{
  "name": "VRCFury-Updater",
  "references": [
  ],
  "includePlatforms": [
    "Editor"
  ],
  "excludePlatforms": [],
  "allowUnsafeCode": false,
  "overrideReferences": false,
  "precompiledReferences": [],
  "autoReferenced": false,
  "defineConstraints": [],
  "versionDefines": [],
  "noEngineReferences": false
}